DSD_elevador5/simulation/qsim/DSD_elevador5.msim.vcd
$comment
	File created using the following command:
		vcd file DSD_elevador5.msim.vcd -direction
$end
$date
	Fri Nov 16 13:33:32 2018
$end
$version
	ModelSim Version 10.1d
$end
$timescale
	1ps
$end
$scope module ES201917EL_vlg_vec_tst $end
$var reg 1 ! boton_P1 $end
$var reg 1 " boton_P2 $end
$var reg 1 # boton_P3 $end
$var reg 1 $ boton_PB $end
$var reg 1 % reloj $end
$var reg 1 & sensor_P1 $end
$var reg 1 ' sensor_P2 $end
$var reg 1 ( sensor_P3 $end
$var reg 1 ) sensor_PB $end
$var wire 1 * BAJAR $end
$var wire 1 + buzzer $end
$var wire 1 , Q [3] $end
$var wire 1 - Q [2] $end
$var wire 1 . Q [1] $end
$var wire 1 / Q [0] $end
$var wire 1 0 SUBIR $end
$var wire 1 1 sampler $end
$scope module i1 $end
$var wire 1 2 gnd $end
$var wire 1 3 vcc $end
$var wire 1 4 unknown $end
$var tri1 1 5 devclrn $end
$var tri1 1 6 devpor $end
$var tri1 1 7 devoe $end
$var wire 1 8 reloj~combout $end
$var wire 1 9 boton_PB~combout $end
$var wire 1 : boton_P1~combout $end
$var wire 1 ; sensor_P3~combout $end
$var wire 1 < sensor_PB~combout $end
$var wire 1 = sensor_P1~combout $end
$var wire 1 > sensor_P2~combout $end
$var wire 1 ? edo_pres.DETECTA_PISO~regout $end
$var wire 1 @ Selector11~0_combout $end
$var wire 1 A boton_P2~combout $end
$var wire 1 B boton_P3~combout $end
$var wire 1 C edo_pres.SP1~regout $end
$var wire 1 D Selector10~1_combout $end
$var wire 1 E Selector10~0_combout $end
$var wire 1 F edo_pres.BP1~regout $end
$var wire 1 G edo_pres.DP1~regout $end
$var wire 1 H Selector8~0_combout $end
$var wire 1 I Selector8~1_combout $end
$var wire 1 J edo_pres.P1~regout $end
$var wire 1 K Selector12~0_combout $end
$var wire 1 L edo_pres.SP2~regout $end
$var wire 1 M edo_pres.DP2~regout $end
$var wire 1 N Selector11~1_combout $end
$var wire 1 O edo_pres.P2~regout $end
$var wire 1 P Selector7~0_combout $end
$var wire 1 Q edo_pres.BPB~regout $end
$var wire 1 R edo_pres.DPB~regout $end
$var wire 1 S Selector6~0_combout $end
$var wire 1 T edo_pres.PB~regout $end
$var wire 1 U Selector15~1_combout $end
$var wire 1 V Selector15~0_combout $end
$var wire 1 W edo_pres.SP3~regout $end
$var wire 1 X edo_pres.DP3~regout $end
$var wire 1 Y Selector14~1_combout $end
$var wire 1 Z edo_pres.P3~regout $end
$var wire 1 [ Selector14~0_combout $end
$var wire 1 \ edo_pres.BP2~regout $end
$var wire 1 ] WideOr3~0_combout $end
$var wire 1 ^ WideOr2~0_combout $end
$var wire 1 _ WideOr3~combout $end
$var wire 1 ` WideOr2~combout $end
$var wire 1 a WideOr0~0_combout $end
$var wire 1 b WideOr1~0_combout $end
$var wire 1 c WideOr1~combout $end
$var wire 1 d WideOr0~1_combout $end
$var wire 1 e WideOr0~combout $end
$var wire 1 f Selector2~0_combout $end
$var wire 1 g WideOr7~0_combout $end
$var wire 1 h SUBIR$latch~combout $end
$var wire 1 i WideOr10~0_combout $end
$var wire 1 j BAJAR$latch~combout $end
$var wire 1 k WideOr5~combout $end
$var wire 1 l WideOr6~combout $end
$var wire 1 m B~combout $end
$var wire 1 n buzzer~0_combout $end
$var wire 1 o divi [2] $end
$var wire 1 p divi [1] $end
$var wire 1 q divi [0] $end
$var wire 1 r div_b [1] $end
$var wire 1 s div_b [0] $end
$upscope $end
$upscope $end
$enddefinitions $end
#0
$dumpvars
0!
0"
0#
0$
0%
0&
0'
0(
0)
0*
0+
1/
1.
1-
1,
00
x1
02
13
x4
15
16
17
08
09
0:
0;
0<
0=
0>
0?
1@
0A
0B
0C
0D
1E
0F
0G
0H
0I
0J
0K
0L
0M
0N
0O
0P
0Q
0R
0S
0T
0U
0V
0W
0X
0Y
0Z
0[
0\
1]
1^
0_
1`
0a
0b
1c
1d
1e
1f
0g
0h
1i
0j
0k
0l
0m
0n
zq
zp
0o
0s
0r
$end
#2500
1%
18
01
1s
#5000
0%
08
11
#7500
1%
18
01
1r
0s
#10000
0%
08
11
#12500
1%
18
01
1s
#15000
0%
08
11
#17500
1%
18
01
0r
0s
1o
#20000
0%
08
11
#22500
1%
18
01
1s
#25000
0%
08
11
#27500
1%
18
01
1r
0s
#30000
1&
0%
1=
08
11
1I
0@
#32500
1%
18
01
1s
#35000
0%
08
11
#37500
1%
18
01
0r
0s
0o
#40000
0%
08
11
#42500
1%
18
01
1s
#45000
0%
08
11
#47500
1%
18
01
1r
0s
#50000
0%
08
11
#52500
1%
18
01
1s
#55000
0%
08
11
#57500
1%
18
01
0r
0s
1o
1J
1?
0f
1K
1H
1a
0I
0e
0c
0,
0-
#60000
1#
0%
1B
08
11
1V
#62500
1%
18
01
1s
#65000
0%
08
11
#67500
1%
18
01
1r
0s
#70000
0%
08
11
#72500
1%
18
01
1s
#75000
0%
08
11
#77500
1%
18
01
0r
0s
0o
#80000
0&
0%
0=
08
11
#82500
1%
18
01
1s
#85000
0%
08
11
#87500
1%
18
01
1r
0s
#90000
0%
08
11
#92500
1%
18
01
1s
#95000
0%
08
11
#97500
1%
18
01
0r
0s
1o
1W
0J
1g
0d
1b
1_
1f
0`
0K
0H
1h
1k
1e
1c
0.
0/
10
1,
1-
#100000
0%
08
11
#102500
1%
18
01
1s
#105000
0%
08
11
#107500
1%
18
01
1r
0s
#110000
0%
08
11
#112500
1%
18
01
1s
#115000
0%
08
11
#117500
1%
18
01
0r
0s
0o
#120000
0%
08
11
#122500
1%
18
01
1s
#125000
0%
08
11
#127500
1%
18
01
1r
0s
#130000
0#
0%
0B
08
11
#132500
1%
18
01
1s
#135000
0%
08
11
#137500
1%
18
01
0r
0s
1o
#140000
0%
08
11
#142500
1%
18
01
1s
#145000
0%
08
11
#147500
1%
18
01
1r
0s
#150000
0%
08
11
#152500
1%
18
01
1s
#155000
0%
08
11
#157500
1%
18
01
0r
0s
0o
#160000
0%
08
11
#162500
1%
18
01
1s
#165000
0%
08
11
#167500
1%
18
01
1r
0s
#170000
0%
08
11
#172500
1%
18
01
1s
#175000
0%
08
11
#177500
1%
18
01
0r
0s
1o
#180000
0%
08
11
#182500
1%
18
01
1s
#185000
0%
08
11
#187500
1%
18
01
1r
0s
#190000
0%
08
11
#192500
1%
18
01
1s
#195000
0%
08
11
#197500
1%
18
01
0r
0s
0o
#200000
0%
08
11
#202500
1%
18
01
1s
#205000
0%
08
11
#207500
1%
18
01
1r
0s
#210000
0%
08
11
#212500
1%
18
01
1s
#215000
0%
08
11
#217500
1%
18
01
0r
0s
1o
#220000
0%
08
11
#222500
1%
18
01
1s
#225000
0%
08
11
#227500
1%
18
01
1r
0s
#230000
0%
08
11
#232500
1%
18
01
1s
#235000
0%
08
11
#237500
1%
18
01
0r
0s
0o
#240000
0%
08
11
#242500
1%
18
01
1s
#245000
0%
08
11
#247500
1%
18
01
1r
0s
#250000
0%
08
11
#252500
1%
18
01
1s
#255000
0%
08
11
#257500
1%
18
01
0r
0s
1o
#260000
0%
08
11
#262500
1%
18
01
1s
#265000
0%
08
11
#267500
1%
18
01
1r
0s
#270000
0%
08
11
#272500
1%
18
01
1s
#275000
0%
08
11
#277500
1%
18
01
0r
0s
0o
#280000
0%
08
11
#282500
1%
18
01
1s
#285000
0%
08
11
#287500
1%
18
01
1r
0s
#290000
0%
08
11
#292500
1%
18
01
1s
#295000
0%
08
11
#297500
1%
18
01
0r
0s
1o
#300000
0%
08
11
#302500
1%
18
01
1s
#305000
0%
08
11
#307500
1%
18
01
1r
0s
#310000
0%
08
11
#312500
1%
18
01
1s
#315000
0%
08
11
#317500
1%
18
01
0r
0s
0o
#320000
1(
0%
1;
08
11
0V
#322500
1%
18
01
1s
#325000
0%
08
11
#327500
1%
18
01
1r
0s
#330000
0%
08
11
#332500
1%
18
01
1s
#335000
0%
08
11
#337500
1%
18
01
0r
0s
1o
1X
0W
1l
0a
1Y
0g
1d
0b
0_
0h
0k
1/
1m
00
#340000
0%
08
11
#342500
1%
18
01
1s
#345000
0%
08
11
#347500
1%
18
01
1r
0s
1n
1+
#350000
0%
08
11
#352500
1%
18
01
1s
#355000
0%
08
11
#357500
1%
18
01
0r
0s
0o
0n
0+
#360000
0%
08
11
#362500
1%
18
01
1s
#365000
0%
08
11
#367500
1%
18
01
1r
0s
1n
1+
#370000
0%
08
11
#372500
1%
18
01
1s
#375000
0%
08
11
#377500
1%
18
01
0r
0s
1o
0n
0+
1Z
0X
1[
0E
0l
1a
0Y
1Y
0f
1`
0m
0c
1.
0-
#380000
0%
08
11
#382500
1%
18
01
1s
#385000
0%
08
11
#387500
1%
18
01
1r
0s
#390000
0%
08
11
#392500
1%
18
01
1s
#395000
0%
08
11
#397500
1%
18
01
0r
0s
0o
#400000
1"
0%
1A
08
11
0Y
#402500
1%
18
01
1s
#405000
0%
08
11
#407500
1%
18
01
1r
0s
#410000
0%
08
11
#412500
1%
18
01
1s
#415000
0%
08
11
#417500
1%
18
01
0r
0s
1o
1\
0Z
0i
0d
0]
0e
0[
1E
1k
1e
1_
1f
0`
0,
1j
1,
0.
0/
1*
#420000
0(
0%
0;
08
11
#422500
1%
18
01
1s
#425000
0%
08
11
#427500
1%
18
01
1r
0s
#430000
0%
08
11
#432500
1%
18
01
1s
#435000
0%
08
11
#437500
1%
18
01
0r
0s
0o
#440000
0%
08
11
#442500
1%
18
01
1s
#445000
0%
08
11
#447500
1%
18
01
1r
0s
#450000
0"
0%
0A
08
11
#452500
1%
18
01
1s
#455000
0%
08
11
#457500
1%
18
01
0r
0s
1o
#460000
0%
08
11
#462500
1%
18
01
1s
#465000
0%
08
11
#467500
1%
18
01
1r
0s
#470000
0%
08
11
#472500
1%
18
01
1s
#475000
0%
08
11
#477500
1%
18
01
0r
0s
0o
#480000
0%
08
11
#482500
1%
18
01
1s
#485000
0%
08
11
#487500
1%
18
01
1r
0s
#490000
0%
08
11
#492500
1%
18
01
1s
#495000
0%
08
11
#497500
1%
18
01
0r
0s
1o
#500000
0%
08
11
#502500
1%
18
01
1s
#505000
0%
08
11
#507500
1%
18
01
1r
0s
#510000
0%
08
11
#512500
1%
18
01
1s
#515000
0%
08
11
#517500
1%
18
01
0r
0s
0o
#520000
0%
08
11
#522500
1%
18
01
1s
#525000
0%
08
11
#527500
1%
18
01
1r
0s
#530000
0%
08
11
#532500
1%
18
01
1s
#535000
0%
08
11
#537500
1%
18
01
0r
0s
1o
#540000
0%
08
11
#542500
1%
18
01
1s
#545000
0%
08
11
#547500
1%
18
01
1r
0s
#550000
0%
08
11
#552500
1%
18
01
1s
#555000
0%
08
11
#557500
1%
18
01
0r
0s
0o
#560000
0%
08
11
#562500
1%
18
01
1s
#565000
0%
08
11
#567500
1%
18
01
1r
0s
#570000
0%
08
11
#572500
1%
18
01
1s
#575000
0%
08
11
#577500
1%
18
01
0r
0s
1o
#580000
0%
08
11
#582500
1%
18
01
1s
#585000
0%
08
11
#587500
1%
18
01
1r
0s
#590000
0%
08
11
#592500
1%
18
01
1s
#595000
0%
08
11
#597500
1%
18
01
0r
0s
0o
#600000
1'
0%
1>
08
11
#602500
1%
18
01
1s
#605000
0%
08
11
#607500
1%
18
01
1r
0s
#610000
0%
08
11
#612500
1%
18
01
1s
#615000
0%
08
11
#617500
1%
18
01
0r
0s
1o
0\
1M
1i
1d
1]
1l
0^
0j
0k
1`
1m
0*
1.
#620000
0%
08
11
#622500
1%
18
01
1s
#625000
0%
08
11
#627500
1%
18
01
1r
0s
1n
1+
#630000
0%
08
11
#632500
1%
18
01
1s
#635000
0%
08
11
#637500
1%
18
01
0r
0s
0o
0n
0+
#640000
1$
0%
19
08
11
#642500
1%
18
01
1s
#645000
0%
08
11
#647500
1%
18
01
1r
0s
1n
1+
#650000
0%
08
11
#652500
1%
18
01
1s
#655000
0%
08
11
#657500
1%
18
01
0r
0s
1o
0n
0+
1O
0M
1b
0E
0l
0e
1^
1c
0f
0m
0_
0,
1-
1/
#660000
0'
0%
0>
08
11
#662500
1%
18
01
1s
#665000
0%
08
11
#667500
1%
18
01
1r
0s
#670000
0%
08
11
#672500
1%
18
01
1s
#675000
0%
08
11
#677500
1%
18
01
0r
0s
0o
#680000
0%
08
11
#682500
1%
18
01
1s
#685000
0%
08
11
#687500
1%
18
01
1r
0s
#690000
0%
08
11
#692500
1%
18
01
1s
#695000
0%
08
11
#697500
1%
18
01
0r
0s
1o
1Q
0O
1k
0i
1P
0b
1E
0c
1f
0`
1j
0-
0.
1*
#700000
0$
0%
09
08
11
#702500
1%
18
01
1s
#705000
0%
08
11
#707500
1%
18
01
1r
0s
#710000
0%
08
11
#712500
1%
18
01
1s
#715000
0%
08
11
#717500
1%
18
01
0r
0s
0o
#720000
0%
08
11
#722500
1%
18
01
1s
#725000
0%
08
11
#727500
1%
18
01
1r
0s
#730000
0%
08
11
#732500
1%
18
01
1s
#735000
0%
08
11
#737500
1%
18
01
0r
0s
1o
#740000
0%
08
11
#742500
1%
18
01
1s
#745000
0%
08
11
#747500
1%
18
01
1r
0s
#750000
0%
08
11
#752500
1%
18
01
1s
#755000
0%
08
11
#757500
1%
18
01
0r
0s
0o
#760000
0%
08
11
#762500
1%
18
01
1s
#765000
0%
08
11
#767500
1%
18
01
1r
0s
#770000
0%
08
11
#772500
1%
18
01
1s
#775000
0%
08
11
#777500
1%
18
01
0r
0s
1o
#780000
0%
08
11
#782500
1%
18
01
1s
#785000
0%
08
11
#787500
1%
18
01
1r
0s
#790000
0%
08
11
#792500
1%
18
01
1s
#795000
0%
08
11
#797500
1%
18
01
0r
0s
0o
#800000
0%
08
11
#802500
1%
18
01
1s
#805000
0%
08
11
#807500
1%
18
01
1r
0s
#810000
0%
08
11
#812500
1%
18
01
1s
#815000
0%
08
11
#817500
1%
18
01
0r
0s
1o
#820000
0%
08
11
#822500
1%
18
01
1s
#825000
0%
08
11
#827500
1%
18
01
1r
0s
#830000
0%
08
11
#832500
1%
18
01
1s
#835000
0%
08
11
#837500
1%
18
01
0r
0s
0o
#840000
0%
08
11
#842500
1%
18
01
1s
#845000
0%
08
11
#847500
1%
18
01
1r
0s
#850000
1)
0%
1<
08
11
0P
#852500
1%
18
01
1s
#855000
0%
08
11
#857500
1%
18
01
0r
0s
1o
1R
0Q
1l
0^
0k
1i
1m
1`
1_
0j
1.
0*
0/
#860000
0%
08
11
#862500
1%
18
01
1s
#865000
0%
08
11
#867500
1%
18
01
1r
0s
1n
1+
#870000
0%
08
11
#872500
1%
18
01
1s
#875000
0%
08
11
#877500
1%
18
01
0r
0s
0o
0n
0+
#880000
0%
08
11
#882500
1%
18
01
1s
#885000
0%
08
11
#887500
1%
18
01
1r
0s
1n
1+
#890000
0%
08
11
#892500
1%
18
01
1s
#895000
0%
08
11
#897500
1%
18
01
0r
0s
1o
0n
0+
1T
0R
1U
1S
1K
0l
1^
0m
0`
0.
#900000
0%
08
11
#902500
1%
18
01
1s
#905000
0%
08
11
#907500
1%
18
01
1r
0s
#910000
0%
08
11
#912500
1%
18
01
1s
#915000
0%
08
11
#917500
1%
18
01
0r
0s
0o
#920000
0%
08
11
#922500
1%
18
01
1s
#925000
0%
08
11
#927500
1%
18
01
1r
0s
#930000
0%
08
11
#932500
1%
18
01
1s
#935000
0%
08
11
#937500
1%
18
01
0r
0s
1o
#940000
0%
08
11
#942500
1%
18
01
1s
#945000
0%
08
11
#947500
1%
18
01
1r
0s
#950000
0%
08
11
#952500
1%
18
01
1s
#955000
0%
08
11
#957500
1%
18
01
0r
0s
0o
#960000
0%
08
11
#962500
1%
18
01
1s
#965000
0%
08
11
#967500
1%
18
01
1r
0s
#970000
0%
08
11
#972500
1%
18
01
1s
#975000
0%
08
11
#977500
1%
18
01
0r
0s
1o
#980000
0%
08
11
#982500
1%
18
01
1s
#985000
0%
08
11
#987500
1%
18
01
1r
0s
#990000
0%
08
11
#992500
1%
18
01
1s
#995000
0%
08
11
#997500
1%
18
01
0r
0s
0o
