DSD_LCD/simulation/qsim/LCD491.msim.vcd
$comment
	File created using the following command:
		vcd file LCD491.msim.vcd -direction
$end
$date
	Thu Sep 27 15:56:55 2018
$end
$version
	ModelSim Version 10.1d
$end
$timescale
	1ps
$end
$scope module lcd_vlg_vec_tst $end
$var reg 1 ! ck $end
$var reg 4 " treg_Q [3:0] $end
$var reg 1 # rst $end
$var wire 1 $ D [7] $end
$var wire 1 % D [6] $end
$var wire 1 & D [5] $end
$var wire 1 ' D [4] $end
$var wire 1 ( D [3] $end
$var wire 1 ) D [2] $end
$var wire 1 * D [1] $end
$var wire 1 + D [0] $end
$var wire 1 , Q [3] $end
$var wire 1 - Q [2] $end
$var wire 1 . Q [1] $end
$var wire 1 / Q [0] $end
$var wire 1 0 rs $end
$var wire 1 1 rw $end
$var wire 1 2 sampler $end
$scope module i1 $end
$var wire 1 3 gnd $end
$var wire 1 4 vcc $end
$var wire 1 5 unknown $end
$var tri1 1 6 devclrn $end
$var tri1 1 7 devpor $end
$var tri1 1 8 devoe $end
$var wire 1 9 ck~combout $end
$var wire 1 : rst~combout $end
$var wire 1 ; Q[0]~reg0_regout $end
$var wire 1 < Equal0~0_combout $end
$var wire 1 = contador~0_combout $end
$var wire 1 > Q[1]~reg0_regout $end
$var wire 1 ? Q[2]~reg0_regout $end
$var wire 1 @ Q[3]~reg0_regout $end
$var wire 1 A Mux8~0_combout $end
$var wire 1 B Mux7~0_combout $end
$var wire 1 C Mux6~0_combout $end
$var wire 1 D Mux5~0_combout $end
$var wire 1 E Mux4~0_combout $end
$var wire 1 F Mux3~0_combout $end
$var wire 1 G Mux2~0_combout $end
$var wire 1 H Mux0~0_combout $end
$upscope $end
$upscope $end
$enddefinitions $end
#0
$dumpvars
0!
bz "
0#
0+
0*
0)
1(
1'
1&
0%
0$
0/
0.
0-
0,
00
01
x2
03
14
x5
16
17
18
09
0:
0;
0<
0=
0>
0?
0@
0A
0B
0C
0D
0E
0F
0G
0H
$end
#33000
1!
19
02
1;
1G
1F
1E
1B
1/
1+
0&
0'
0(
#66000
0!
09
12
#99000
1!
19
02
1>
0;
1D
1C
0B
1.
0/
1)
1*
0+
#132000
0!
09
12
#165000
1!
19
02
1;
0E
1<
1/
1(
#198000
0!
09
12
#231000
1!
19
02
1?
0>
0;
1H
1E
0D
0C
0<
1-
0.
0/
1$
0)
0*
0(
#264000
0!
09
12
#297000
1!
19
02
1;
0H
0E
1C
1A
1/
0$
1*
1%
10
1(
#330000
0!
09
12
#363000
1!
19
02
1>
0;
0G
1D
1B
1.
0/
1)
1+
1&
#396000
0!
09
12
#429000
1!
19
02
1;
0F
1E
0D
1<
1/
0)
1'
0(
#462000
0!
09
12
#495000
1!
19
02
1@
0?
0>
0;
1F
1D
0C
0<
1,
0-
0.
0/
1)
0*
0'
#528000
0!
09
12
#561000
1!
19
02
1;
1G
0D
0B
1/
0)
0+
0&
#594000
0!
09
12
#627000
1!
19
02
1>
0;
0F
1C
1B
1.
0/
1*
1+
1'
#660000
0!
09
12
#693000
1!
19
02
1;
0G
1F
0C
1<
1/
0*
1&
0'
#726000
0!
09
12
#759000
1!
19
02
1?
0>
0;
0E
1D
1C
0B
1=
0<
1-
0.
0/
0=
1)
1*
0+
1(
#792000
0!
09
12
#825000
1!
19
02
1;
1E
0D
1B
1/
0)
1+
0(
#858000
0!
09
12
#891000
1!
19
02
1>
0;
0E
0C
0B
1.
0/
0*
0+
1(
#924000
0!
09
12
#957000
1!
19
02
1;
1E
1D
1B
1<
1/
1=
1)
1+
0(
#990000
0!
09
12
