DSD_matriz/simulation/qsim/DSD_matriz.msim.vcd
$comment
	File created using the following command:
		vcd file DSD_matriz.msim.vcd -direction
$end
$date
	Tue Oct 02 22:15:17 2018
$end
$version
	ModelSim Version 10.1d
$end
$timescale
	1ps
$end
$scope module matrix_vlg_vec_tst $end
$var reg 1 ! clk $end
$var reg 3 " treg_Q1 [2:0] $end
$var reg 3 # treg_Q2 [2:0] $end
$var reg 11 $ treg_Q3 [10:0] $end
$var reg 1 % rst $end
$var wire 1 & COL [7] $end
$var wire 1 ' COL [6] $end
$var wire 1 ( COL [5] $end
$var wire 1 ) COL [4] $end
$var wire 1 * COL [3] $end
$var wire 1 + COL [2] $end
$var wire 1 , COL [1] $end
$var wire 1 - COL [0] $end
$var wire 1 . Q1 [2] $end
$var wire 1 / Q1 [1] $end
$var wire 1 0 Q1 [0] $end
$var wire 1 1 Q2 [2] $end
$var wire 1 2 Q2 [1] $end
$var wire 1 3 Q2 [0] $end
$var wire 1 4 Q3 [10] $end
$var wire 1 5 Q3 [9] $end
$var wire 1 6 Q3 [8] $end
$var wire 1 7 Q3 [7] $end
$var wire 1 8 Q3 [6] $end
$var wire 1 9 Q3 [5] $end
$var wire 1 : Q3 [4] $end
$var wire 1 ; Q3 [3] $end
$var wire 1 < Q3 [2] $end
$var wire 1 = Q3 [1] $end
$var wire 1 > Q3 [0] $end
$var wire 1 ? REN [7] $end
$var wire 1 @ REN [6] $end
$var wire 1 A REN [5] $end
$var wire 1 B REN [4] $end
$var wire 1 C REN [3] $end
$var wire 1 D REN [2] $end
$var wire 1 E REN [1] $end
$var wire 1 F REN [0] $end
$var wire 1 G sampler $end
$scope module i1 $end
$var wire 1 H gnd $end
$var wire 1 I vcc $end
$var wire 1 J unknown $end
$var tri1 1 K devclrn $end
$var tri1 1 L devpor $end
$var tri1 1 M devoe $end
$var wire 1 N clk~combout $end
$var wire 1 O rst~combout $end
$var wire 1 P Q2[0]~reg0_regout $end
$var wire 1 Q Q2[0]~5_combout $end
$var wire 1 R Q3[0]~reg0_regout $end
$var wire 1 S Q3[0]~12 $end
$var wire 1 T Q3[0]~12COUT1_54 $end
$var wire 1 U Q3[1]~reg0_regout $end
$var wire 1 V Q3[1]~14 $end
$var wire 1 W Q3[1]~14COUT1_56 $end
$var wire 1 X Q3[2]~reg0_regout $end
$var wire 1 Y Q3[2]~16 $end
$var wire 1 Z Q3[2]~16COUT1_58 $end
$var wire 1 [ Q3[3]~reg0_regout $end
$var wire 1 \ Q3[3]~18 $end
$var wire 1 ] Q3[3]~18COUT1_60 $end
$var wire 1 ^ Q3[4]~reg0_regout $end
$var wire 1 _ contadores~0_combout $end
$var wire 1 ` Q3[4]~20 $end
$var wire 1 a Q3[5]~reg0_regout $end
$var wire 1 b Q3[5]~22 $end
$var wire 1 c Q3[5]~22COUT1_62 $end
$var wire 1 d Q3[6]~reg0_regout $end
$var wire 1 e Q3[6]~24 $end
$var wire 1 f Q3[6]~24COUT1_64 $end
$var wire 1 g Q3[7]~reg0_regout $end
$var wire 1 h Q3[7]~26 $end
$var wire 1 i Q3[7]~26COUT1_66 $end
$var wire 1 j Q3[8]~reg0_regout $end
$var wire 1 k Q3[8]~28 $end
$var wire 1 l Q3[8]~28COUT1_68 $end
$var wire 1 m Q3[9]~reg0_regout $end
$var wire 1 n Q3[9]~30 $end
$var wire 1 o Q3[10]~reg0_regout $end
$var wire 1 p contadores~1_combout $end
$var wire 1 q contadores~2_combout $end
$var wire 1 r contadores~3_combout $end
$var wire 1 s Q2[1]~reg0_regout $end
$var wire 1 t Q2[2]~reg0_regout $end
$var wire 1 u Mux25~0_combout $end
$var wire 1 v Mux25~1_combout $end
$var wire 1 w Mux25~2_combout $end
$var wire 1 x Mux25~3_combout $end
$var wire 1 y Mux25~4_combout $end
$var wire 1 z Mux25~5_combout $end
$var wire 1 { Mux25~6_combout $end
$var wire 1 | Mux25~7_combout $end
$var wire 1 } Add0~0_combout $end
$var wire 1 ~ Q1[2]~reg0_regout $end
$var wire 1 !! contadores~4_combout $end
$var wire 1 "! Q1[0]~reg0_regout $end
$var wire 1 #! Q1[1]~reg0_regout $end
$var wire 1 $! Mux38~0_combout $end
$var wire 1 %! Mux38~1_combout $end
$var wire 1 &! Mux38~2_combout $end
$var wire 1 '! Mux38~5_combout $end
$var wire 1 (! Mux38~4_combout $end
$var wire 1 )! Mux37~0_combout $end
$var wire 1 *! Mux38~3_combout $end
$var wire 1 +! Mux16~0_combout $end
$var wire 1 ,! Mux37~1_combout $end
$var wire 1 -! Mux38~8_combout $end
$var wire 1 .! Mux38~7_combout $end
$var wire 1 /! Mux36~0_combout $end
$var wire 1 0! Mux38~6_combout $end
$var wire 1 1! Mux38~9_combout $end
$var wire 1 2! Mux36~1_combout $end
$var wire 1 3! Mux38~10_combout $end
$var wire 1 4! Mux35~0_combout $end
$var wire 1 5! Mux14~0_combout $end
$var wire 1 6! Mux35~1_combout $end
$var wire 1 7! Mux34~0_combout $end
$var wire 1 8! Mux34~1_combout $end
$var wire 1 9! Mux34~2_combout $end
$var wire 1 :! Mux34~3_combout $end
$var wire 1 ;! Mux33~1_combout $end
$var wire 1 <! Mux33~0_combout $end
$var wire 1 =! Mux33~2_combout $end
$var wire 1 >! Mux33~3_combout $end
$upscope $end
$upscope $end
$enddefinitions $end
#0
$dumpvars
0!
bz "
bz #
bz $
x%
0-
0,
0+
0*
0)
0(
0'
0&
00
0/
0.
03
02
01
0>
0=
0<
0;
0:
09
08
07
06
05
04
1F
1E
1D
1C
1B
1A
1@
0?
xG
0H
1I
xJ
1K
1L
1M
0N
xO
0P
xQ
0R
0S
0T
0U
1V
1W
0X
0Y
0Z
0[
1\
1]
0^
0_
0`
0a
1b
1c
0d
0e
0f
0g
1h
1i
0j
0k
0l
0m
1n
0o
0p
0q
0r
0s
0t
0u
0v
0w
0x
0y
0z
0{
1|
0}
0~
x!!
0"!
0#!
0$!
0%!
0&!
1'!
0(!
0)!
1*!
0+!
0,!
1-!
1.!
0/!
00!
11!
02!
03!
04!
05!
06!
07!
08!
09!
0:!
0;!
0<!
0=!
0>!
$end
#500
1!
1N
0G
1R
xP
1T
1S
x;!
x5!
x3!
x1!
x-!
x+!
x'!
x&!
x|
x{
1>
x3
x4!
x/!
x)!
x,
x?
x@
x6!
x2!
x,!
x)
x*
x+
#1000
0!
0N
1G
#1500
1!
1N
0G
xs
1U
0R
x7!
x.!
x(!
x$!
xz
xy
0W
0V
0T
0S
x2
1=
0>
1W
1V
xA
xB
#2000
0!
0N
1G
#2500
1!
1N
0G
xt
1R
x=!
x:!
x9!
x0!
xx
xw
xv
xu
1T
1S
x1
1>
x>!
0W
0V
x(
xC
xD
xE
xF
x'
#3000
0!
0N
1G
#3500
1!
1N
0G
1X
0U
0R
1Z
1Y
1W
1V
0T
0S
1<
0=
0>
0Z
0Y
#4000
0!
0N
1G
#4500
1!
1N
0G
1R
1T
1S
1>
#5000
0!
0N
1G
#5500
1!
1N
0G
1U
0R
0W
0V
0T
0S
1=
0>
1Z
1Y
1W
1V
0Z
0Y
#6000
0!
0N
1G
#6500
1!
1N
0G
1R
1T
1S
1>
0W
0V
1Z
1Y
#7000
0!
0N
1G
#7500
1!
1N
0G
1[
0X
0U
0R
0]
0\
0Z
0Y
1W
1V
0T
0S
1;
0<
0=
0>
1]
1\
#8000
0!
0N
1G
#8500
1!
1N
0G
1R
1T
1S
1>
#9000
0!
0N
1G
#9500
1!
1N
0G
1U
0R
0W
0V
0T
0S
1=
0>
1W
1V
#10000
0!
0N
1G
#10500
1!
1N
0G
1R
1T
1S
1>
0W
0V
#11000
0!
0N
1G
#11500
1!
1N
0G
1X
0U
0R
1Z
1Y
1W
1V
0T
0S
1<
0=
0>
0]
0\
0Z
0Y
1]
1\
#12000
0!
0N
1G
#12500
1!
1N
0G
1R
1T
1S
1>
#13000
0!
0N
1G
#13500
1!
1N
0G
1U
0R
0W
0V
0T
0S
1=
0>
1Z
1Y
1W
1V
0]
0\
0Z
0Y
1]
1\
#14000
0!
0N
1G
#14500
1!
1N
0G
1R
1T
1S
1>
0W
0V
1Z
1Y
0]
0\
#15000
0!
0N
1G
#15500
1!
1N
0G
1^
0[
0X
0U
0R
1`
1]
1\
0Z
0Y
1W
1V
0T
0S
1:
0;
0<
0=
0>
0`
#16000
0!
0N
1G
#16500
1!
1N
0G
1R
1T
1S
1>
#17000
0!
0N
1G
#17500
1!
1N
0G
1U
0R
0W
0V
0T
0S
1=
0>
1W
1V
#18000
0!
0N
1G
#18500
1!
1N
0G
1R
1T
1S
1>
0W
0V
#19000
0!
0N
1G
#19500
1!
1N
0G
1X
0U
0R
1Z
1Y
1W
1V
0T
0S
1<
0=
0>
0Z
0Y
#20000
0!
0N
1G
#20500
1!
1N
0G
1R
1T
1S
1>
#21000
0!
0N
1G
#21500
1!
1N
0G
1U
0R
0W
0V
0T
0S
1=
0>
1Z
1Y
1W
1V
0Z
0Y
#22000
0!
0N
1G
#22500
1!
1N
0G
1R
1T
1S
1>
0W
0V
1Z
1Y
#23000
0!
0N
1G
#23500
1!
1N
0G
1[
0X
0U
0R
0]
0\
0Z
0Y
1W
1V
0T
0S
1;
0<
0=
0>
1`
1]
1\
0`
#24000
0!
0N
1G
#24500
1!
1N
0G
1R
1T
1S
1>
#25000
0!
0N
1G
#25500
1!
1N
0G
1U
0R
0W
0V
0T
0S
1=
0>
1W
1V
#26000
0!
0N
1G
#26500
1!
1N
0G
1R
1T
1S
1>
0W
0V
#27000
0!
0N
1G
#27500
1!
1N
0G
1X
0U
0R
1Z
1Y
1W
1V
0T
0S
1<
0=
0>
0]
0\
0Z
0Y
1`
1]
1\
0`
#28000
0!
0N
1G
#28500
1!
1N
0G
1R
1T
1S
1>
#29000
0!
0N
1G
#29500
1!
1N
0G
1U
0R
1_
0W
0V
0T
0S
1=
0>
1Z
1Y
1W
1V
0]
0\
0Z
0Y
1`
1]
1\
0`
#30000
0!
0N
1G
#30500
1!
1N
0G
1R
1T
1S
1>
0W
0V
1Z
1Y
0]
0\
1`
#31000
0!
0N
1G
#31500
1!
1N
0G
1a
0^
0[
0X
0U
0R
0c
0_
0`
1]
1\
0Z
0Y
1W
1V
0T
0S
19
0:
0;
0<
0=
0>
#32000
0!
0N
1G
#32500
1!
1N
0G
1R
1T
1S
1>
#33000
0!
0N
1G
#33500
1!
1N
0G
1U
0R
0W
0V
0T
0S
1=
0>
1W
1V
#34000
0!
0N
1G
#34500
1!
1N
0G
1R
1T
1S
1>
0W
0V
#35000
0!
0N
1G
#35500
1!
1N
0G
1X
0U
0R
1Z
1Y
1W
1V
0T
0S
1<
0=
0>
0Z
0Y
#36000
0!
0N
1G
#36500
1!
1N
0G
1R
1T
1S
1>
#37000
0!
0N
1G
#37500
1!
1N
0G
1U
0R
0W
0V
0T
0S
1=
0>
1Z
1Y
1W
1V
0Z
0Y
#38000
0!
0N
1G
#38500
1!
1N
0G
1R
1T
1S
1>
0W
0V
1Z
1Y
#39000
0!
0N
1G
#39500
1!
1N
0G
1[
0X
0U
0R
0]
0\
0Z
0Y
1W
1V
0T
0S
1;
0<
0=
0>
1]
1\
#40000
0!
0N
1G
#40500
1!
1N
0G
1R
1T
1S
1>
#41000
0!
0N
1G
#41500
1!
1N
0G
1U
0R
0W
0V
0T
0S
1=
0>
1W
1V
#42000
0!
0N
1G
#42500
1!
1N
0G
1R
1T
1S
1>
0W
0V
#43000
0!
0N
1G
#43500
1!
1N
0G
1X
0U
0R
1Z
1Y
1W
1V
0T
0S
1<
0=
0>
0]
0\
0Z
0Y
1]
1\
#44000
0!
0N
1G
#44500
1!
1N
0G
1R
1T
1S
1>
#45000
0!
0N
1G
#45500
1!
1N
0G
1U
0R
0W
0V
0T
0S
1=
0>
1Z
1Y
1W
1V
0]
0\
0Z
0Y
1]
1\
#46000
0!
0N
1G
#46500
1!
1N
0G
1R
1T
1S
1>
0W
0V
1Z
1Y
0]
0\
#47000
0!
0N
1G
#47500
1!
1N
0G
1^
0[
0X
0U
0R
1`
1]
1\
0Z
0Y
1W
1V
0T
0S
1:
0;
0<
0=
0>
0`
#48000
0!
0N
1G
#48500
1!
1N
0G
1R
1T
1S
1>
#49000
0!
0N
1G
#49500
1!
1N
0G
1U
0R
0W
0V
0T
0S
1=
0>
1W
1V
#50000
0!
0N
1G
#50500
1!
1N
0G
1R
1T
1S
1>
0W
0V
#51000
0!
0N
1G
#51500
1!
1N
0G
1X
0U
0R
1Z
1Y
1W
1V
0T
0S
1<
0=
0>
0Z
0Y
#52000
0!
0N
1G
#52500
1!
1N
0G
1R
1T
1S
1>
#53000
0!
0N
1G
#53500
1!
1N
0G
1U
0R
0W
0V
0T
0S
1=
0>
1Z
1Y
1W
1V
0Z
0Y
#54000
0!
0N
1G
#54500
1!
1N
0G
1R
1T
1S
1>
0W
0V
1Z
1Y
#55000
0!
0N
1G
#55500
1!
1N
0G
1[
0X
0U
0R
0]
0\
0Z
0Y
1W
1V
0T
0S
1;
0<
0=
0>
1`
1]
1\
0`
#56000
0!
0N
1G
#56500
1!
1N
0G
1R
1T
1S
1>
#57000
0!
0N
1G
#57500
1!
1N
0G
1U
0R
0W
0V
0T
0S
1=
0>
1W
1V
#58000
0!
0N
1G
#58500
1!
1N
0G
1R
1T
1S
1>
0W
0V
#59000
0!
0N
1G
#59500
1!
1N
0G
1X
0U
0R
1Z
1Y
1W
1V
0T
0S
1<
0=
0>
0]
0\
0Z
0Y
1`
1]
1\
0`
#60000
0!
0N
1G
#60500
1!
1N
0G
1R
1T
1S
1>
#61000
0!
0N
1G
#61500
1!
1N
0G
1U
0R
1_
0W
0V
0T
0S
1=
0>
1Z
1Y
1W
1V
0]
0\
0Z
0Y
1`
1]
1\
0`
#62000
0!
0N
1G
#62500
1!
1N
0G
1R
1T
1S
1>
0W
0V
1Z
1Y
0]
0\
1`
#63000
0!
0N
1G
#63500
1!
1N
0G
1d
0a
0^
0[
0X
0U
0R
1f
1c
0_
0`
1]
1\
0Z
0Y
1W
1V
0T
0S
18
09
0:
0;
0<
0=
0>
0f
#64000
0!
0N
1G
#64500
1!
1N
0G
1R
1T
1S
1>
#65000
0!
0N
1G
#65500
1!
1N
0G
1U
0R
0W
0V
0T
0S
1=
0>
1W
1V
#66000
0!
0N
1G
#66500
1!
1N
0G
1R
1T
1S
1>
0W
0V
#67000
0!
0N
1G
#67500
1!
1N
0G
1X
0U
0R
1Z
1Y
1W
1V
0T
0S
1<
0=
0>
0Z
0Y
#68000
0!
0N
1G
#68500
1!
1N
0G
1R
1T
1S
1>
#69000
0!
0N
1G
#69500
1!
1N
0G
1U
0R
0W
0V
0T
0S
1=
0>
1Z
1Y
1W
1V
0Z
0Y
#70000
0!
0N
1G
#70500
1!
1N
0G
1R
1T
1S
1>
0W
0V
1Z
1Y
#71000
0!
0N
1G
#71500
1!
1N
0G
1[
0X
0U
0R
0]
0\
0Z
0Y
1W
1V
0T
0S
1;
0<
0=
0>
1]
1\
#72000
0!
0N
1G
#72500
1!
1N
0G
1R
1T
1S
1>
#73000
0!
0N
1G
#73500
1!
1N
0G
1U
0R
0W
0V
0T
0S
1=
0>
1W
1V
#74000
0!
0N
1G
#74500
1!
1N
0G
1R
1T
1S
1>
0W
0V
#75000
0!
0N
1G
#75500
1!
1N
0G
1X
0U
0R
1Z
1Y
1W
1V
0T
0S
1<
0=
0>
0]
0\
0Z
0Y
1]
1\
#76000
0!
0N
1G
#76500
1!
1N
0G
1R
1T
1S
1>
#77000
0!
0N
1G
#77500
1!
1N
0G
1U
0R
0W
0V
0T
0S
1=
0>
1Z
1Y
1W
1V
0]
0\
0Z
0Y
1]
1\
#78000
0!
0N
1G
#78500
1!
1N
0G
1R
1T
1S
1>
0W
0V
1Z
1Y
0]
0\
#79000
0!
0N
1G
#79500
1!
1N
0G
1^
0[
0X
0U
0R
1`
1]
1\
0Z
0Y
1W
1V
0T
0S
1:
0;
0<
0=
0>
0`
#80000
0!
0N
1G
#80500
1!
1N
0G
1R
1T
1S
1>
#81000
0!
0N
1G
#81500
1!
1N
0G
1U
0R
0W
0V
0T
0S
1=
0>
1W
1V
#82000
0!
0N
1G
#82500
1!
1N
0G
1R
1T
1S
1>
0W
0V
#83000
0!
0N
1G
#83500
1!
1N
0G
1X
0U
0R
1Z
1Y
1W
1V
0T
0S
1<
0=
0>
0Z
0Y
#84000
0!
0N
1G
#84500
1!
1N
0G
1R
1T
1S
1>
#85000
0!
0N
1G
#85500
1!
1N
0G
1U
0R
0W
0V
0T
0S
1=
0>
1Z
1Y
1W
1V
0Z
0Y
#86000
0!
0N
1G
#86500
1!
1N
0G
1R
1T
1S
1>
0W
0V
1Z
1Y
#87000
0!
0N
1G
#87500
1!
1N
0G
1[
0X
0U
0R
0]
0\
0Z
0Y
1W
1V
0T
0S
1;
0<
0=
0>
1`
1]
1\
0`
#88000
0!
0N
1G
#88500
1!
1N
0G
1R
1T
1S
1>
#89000
0!
0N
1G
#89500
1!
1N
0G
1U
0R
0W
0V
0T
0S
1=
0>
1W
1V
#90000
0!
0N
1G
#90500
1!
1N
0G
1R
1T
1S
1>
0W
0V
#91000
0!
0N
1G
#91500
1!
1N
0G
1X
0U
0R
1Z
1Y
1W
1V
0T
0S
1<
0=
0>
0]
0\
0Z
0Y
1`
1]
1\
0`
#92000
0!
0N
1G
#92500
1!
1N
0G
1R
1T
1S
1>
#93000
0!
0N
1G
#93500
1!
1N
0G
1U
0R
1_
0W
0V
0T
0S
1=
0>
1Z
1Y
1W
1V
0]
0\
0Z
0Y
1`
1]
1\
0`
#94000
0!
0N
1G
#94500
1!
1N
0G
1R
1T
1S
1>
0W
0V
1Z
1Y
0]
0\
1`
#95000
0!
0N
1G
#95500
1!
1N
0G
1a
0^
0[
0X
0U
0R
0c
0_
0`
1]
1\
0Z
0Y
1W
1V
0T
0S
19
0:
0;
0<
0=
0>
1f
#96000
0!
0N
1G
#96500
1!
1N
0G
1R
1T
1S
1>
#97000
0!
0N
1G
#97500
1!
1N
0G
1U
0R
0W
0V
0T
0S
1=
0>
1W
1V
#98000
0!
0N
1G
#98500
1!
1N
0G
1R
1T
1S
1>
0W
0V
#99000
0!
0N
1G
#99500
1!
1N
0G
1X
0U
0R
1Z
1Y
1W
1V
0T
0S
1<
0=
0>
0Z
0Y
#100000
0!
0N
1G
#100500
1!
1N
0G
1R
1T
1S
1>
#101000
0!
0N
1G
#101500
1!
1N
0G
1U
0R
0W
0V
0T
0S
1=
0>
1Z
1Y
1W
1V
0Z
0Y
#102000
0!
0N
1G
#102500
1!
1N
0G
1R
1T
1S
1>
0W
0V
1Z
1Y
#103000
0!
0N
1G
#103500
1!
1N
0G
1[
0X
0U
0R
0]
0\
0Z
0Y
1W
1V
0T
0S
1;
0<
0=
0>
1]
1\
#104000
0!
0N
1G
#104500
1!
1N
0G
1R
1T
1S
1>
#105000
0!
0N
1G
#105500
1!
1N
0G
1U
0R
0W
0V
0T
0S
1=
0>
1W
1V
#106000
0!
0N
1G
#106500
1!
1N
0G
1R
1T
1S
1>
0W
0V
#107000
0!
0N
1G
#107500
1!
1N
0G
1X
0U
0R
1Z
1Y
1W
1V
0T
0S
1<
0=
0>
0]
0\
0Z
0Y
1]
1\
#108000
0!
0N
1G
#108500
1!
1N
0G
1R
1T
1S
1>
#109000
0!
0N
1G
#109500
1!
1N
0G
1U
0R
0W
0V
0T
0S
1=
0>
1Z
1Y
1W
1V
0]
0\
0Z
0Y
1]
1\
#110000
0!
0N
1G
#110500
1!
1N
0G
1R
1T
1S
1>
0W
0V
1Z
1Y
0]
0\
#111000
0!
0N
1G
#111500
1!
1N
0G
1^
0[
0X
0U
0R
1`
1]
1\
0Z
0Y
1W
1V
0T
0S
1:
0;
0<
0=
0>
0`
#112000
0!
0N
1G
#112500
1!
1N
0G
1R
1T
1S
1>
#113000
0!
0N
1G
#113500
1!
1N
0G
1U
0R
0W
0V
0T
0S
1=
0>
1W
1V
#114000
0!
0N
1G
#114500
1!
1N
0G
1R
1T
1S
1>
0W
0V
#115000
0!
0N
1G
#115500
1!
1N
0G
1X
0U
0R
1Z
1Y
1W
1V
0T
0S
1<
0=
0>
0Z
0Y
#116000
0!
0N
1G
#116500
1!
1N
0G
1R
1T
1S
1>
#117000
0!
0N
1G
#117500
1!
1N
0G
1U
0R
0W
0V
0T
0S
1=
0>
1Z
1Y
1W
1V
0Z
0Y
#118000
0!
0N
1G
#118500
1!
1N
0G
1R
1T
1S
1>
0W
0V
1Z
1Y
#119000
0!
0N
1G
#119500
1!
1N
0G
1[
0X
0U
0R
0]
0\
0Z
0Y
1W
1V
0T
0S
1;
0<
0=
0>
1`
1]
1\
0`
#120000
0!
0N
1G
#120500
1!
1N
0G
1R
1T
1S
1>
#121000
0!
0N
1G
#121500
1!
1N
0G
1U
0R
0W
0V
0T
0S
1=
0>
1W
1V
#122000
0!
0N
1G
#122500
1!
1N
0G
1R
1T
1S
1>
0W
0V
#123000
0!
0N
1G
#123500
1!
1N
0G
1X
0U
0R
1Z
1Y
1W
1V
0T
0S
1<
0=
0>
0]
0\
0Z
0Y
1`
1]
1\
0`
#124000
0!
0N
1G
#124500
1!
1N
0G
1R
1T
1S
1>
#125000
0!
0N
1G
#125500
1!
1N
0G
1U
0R
1_
0W
0V
0T
0S
1=
0>
1Z
1Y
1W
1V
0]
0\
0Z
0Y
1`
1]
1\
0`
#126000
0!
0N
1G
#126500
1!
1N
0G
1R
1T
1S
1>
0W
0V
1Z
1Y
0]
0\
1`
#127000
0!
0N
1G
#127500
1!
1N
0G
1g
0d
0a
0^
0[
0X
0U
0R
0i
0f
1c
0_
0`
1]
1\
0Z
0Y
1W
1V
0T
0S
17
08
09
0:
0;
0<
0=
0>
1i
#128000
0!
0N
1G
#128500
1!
1N
0G
1R
1T
1S
1>
#129000
0!
0N
1G
#129500
1!
1N
0G
1U
0R
0W
0V
0T
0S
1=
0>
1W
1V
#130000
0!
0N
1G
#130500
1!
1N
0G
1R
1T
1S
1>
0W
0V
#131000
0!
0N
1G
#131500
1!
1N
0G
1X
0U
0R
1Z
1Y
1W
1V
0T
0S
1<
0=
0>
0Z
0Y
#132000
0!
0N
1G
#132500
1!
1N
0G
1R
1T
1S
1>
#133000
0!
0N
1G
#133500
1!
1N
0G
1U
0R
0W
0V
0T
0S
1=
0>
1Z
1Y
1W
1V
0Z
0Y
#134000
0!
0N
1G
#134500
1!
1N
0G
1R
1T
1S
1>
0W
0V
1Z
1Y
#135000
0!
0N
1G
#135500
1!
1N
0G
1[
0X
0U
0R
0]
0\
0Z
0Y
1W
1V
0T
0S
1;
0<
0=
0>
1]
1\
#136000
0!
0N
1G
#136500
1!
1N
0G
1R
1T
1S
1>
#137000
0!
0N
1G
#137500
1!
1N
0G
1U
0R
0W
0V
0T
0S
1=
0>
1W
1V
#138000
0!
0N
1G
#138500
1!
1N
0G
1R
1T
1S
1>
0W
0V
#139000
0!
0N
1G
#139500
1!
1N
0G
1X
0U
0R
1Z
1Y
1W
1V
0T
0S
1<
0=
0>
0]
0\
0Z
0Y
1]
1\
#140000
0!
0N
1G
#140500
1!
1N
0G
1R
1T
1S
1>
#141000
0!
0N
1G
#141500
1!
1N
0G
1U
0R
0W
0V
0T
0S
1=
0>
1Z
1Y
1W
1V
0]
0\
0Z
0Y
1]
1\
#142000
0!
0N
1G
#142500
1!
1N
0G
1R
1T
1S
1>
0W
0V
1Z
1Y
0]
0\
#143000
0!
0N
1G
#143500
1!
1N
0G
1^
0[
0X
0U
0R
1`
1]
1\
0Z
0Y
1W
1V
0T
0S
1:
0;
0<
0=
0>
0`
#144000
0!
0N
1G
#144500
1!
1N
0G
1R
1T
1S
1>
#145000
0!
0N
1G
#145500
1!
1N
0G
1U
0R
0W
0V
0T
0S
1=
0>
1W
1V
#146000
0!
0N
1G
#146500
1!
1N
0G
1R
1T
1S
1>
0W
0V
#147000
0!
0N
1G
#147500
1!
1N
0G
1X
0U
0R
1Z
1Y
1W
1V
0T
0S
1<
0=
0>
0Z
0Y
#148000
0!
0N
1G
#148500
1!
1N
0G
1R
1T
1S
1>
#149000
0!
0N
1G
#149500
1!
1N
0G
1U
0R
0W
0V
0T
0S
1=
0>
1Z
1Y
1W
1V
0Z
0Y
#150000
0!
0N
1G
#150500
1!
1N
0G
1R
1T
1S
1>
0W
0V
1Z
1Y
#151000
0!
0N
1G
#151500
1!
1N
0G
1[
0X
0U
0R
0]
0\
0Z
0Y
1W
1V
0T
0S
1;
0<
0=
0>
1`
1]
1\
0`
#152000
0!
0N
1G
#152500
1!
1N
0G
1R
1T
1S
1>
#153000
0!
0N
1G
#153500
1!
1N
0G
1U
0R
0W
0V
0T
0S
1=
0>
1W
1V
#154000
0!
0N
1G
#154500
1!
1N
0G
1R
1T
1S
1>
0W
0V
#155000
0!
0N
1G
#155500
1!
1N
0G
1X
0U
0R
1Z
1Y
1W
1V
0T
0S
1<
0=
0>
0]
0\
0Z
0Y
1`
1]
1\
0`
#156000
0!
0N
1G
#156500
1!
1N
0G
1R
1T
1S
1>
#157000
0!
0N
1G
#157500
1!
1N
0G
1U
0R
1_
0W
0V
0T
0S
1=
0>
1Z
1Y
1W
1V
0]
0\
0Z
0Y
1`
1]
1\
0`
#158000
0!
0N
1G
#158500
1!
1N
0G
1R
1T
1S
1>
0W
0V
1Z
1Y
0]
0\
1`
#159000
0!
0N
1G
#159500
1!
1N
0G
1a
0^
0[
0X
0U
0R
0c
0_
0`
1]
1\
0Z
0Y
1W
1V
0T
0S
19
0:
0;
0<
0=
0>
#160000
0!
0N
1G
#160500
1!
1N
0G
1R
1T
1S
1>
#161000
0!
0N
1G
#161500
1!
1N
0G
1U
0R
0W
0V
0T
0S
1=
0>
1W
1V
#162000
0!
0N
1G
#162500
1!
1N
0G
1R
1T
1S
1>
0W
0V
#163000
0!
0N
1G
#163500
1!
1N
0G
1X
0U
0R
1Z
1Y
1W
1V
0T
0S
1<
0=
0>
0Z
0Y
#164000
0!
0N
1G
#164500
1!
1N
0G
1R
1T
1S
1>
#165000
0!
0N
1G
#165500
1!
1N
0G
1U
0R
0W
0V
0T
0S
1=
0>
1Z
1Y
1W
1V
0Z
0Y
#166000
0!
0N
1G
#166500
1!
1N
0G
1R
1T
1S
1>
0W
0V
1Z
1Y
#167000
0!
0N
1G
#167500
1!
1N
0G
1[
0X
0U
0R
0]
0\
0Z
0Y
1W
1V
0T
0S
1;
0<
0=
0>
1]
1\
#168000
0!
0N
1G
#168500
1!
1N
0G
1R
1T
1S
1>
#169000
0!
0N
1G
#169500
1!
1N
0G
1U
0R
0W
0V
0T
0S
1=
0>
1W
1V
#170000
0!
0N
1G
#170500
1!
1N
0G
1R
1T
1S
1>
0W
0V
#171000
0!
0N
1G
#171500
1!
1N
0G
1X
0U
0R
1Z
1Y
1W
1V
0T
0S
1<
0=
0>
0]
0\
0Z
0Y
1]
1\
#172000
0!
0N
1G
#172500
1!
1N
0G
1R
1T
1S
1>
#173000
0!
0N
1G
#173500
1!
1N
0G
1U
0R
0W
0V
0T
0S
1=
0>
1Z
1Y
1W
1V
0]
0\
0Z
0Y
1]
1\
#174000
0!
0N
1G
#174500
1!
1N
0G
1R
1T
1S
1>
0W
0V
1Z
1Y
0]
0\
#175000
0!
0N
1G
#175500
1!
1N
0G
1^
0[
0X
0U
0R
1`
1]
1\
0Z
0Y
1W
1V
0T
0S
1:
0;
0<
0=
0>
0`
#176000
0!
0N
1G
#176500
1!
1N
0G
1R
1T
1S
1>
#177000
0!
0N
1G
#177500
1!
1N
0G
1U
0R
0W
0V
0T
0S
1=
0>
1W
1V
#178000
0!
0N
1G
#178500
1!
1N
0G
1R
1T
1S
1>
0W
0V
#179000
0!
0N
1G
#179500
1!
1N
0G
1X
0U
0R
1Z
1Y
1W
1V
0T
0S
1<
0=
0>
0Z
0Y
#180000
0!
0N
1G
#180500
1!
1N
0G
1R
1T
1S
1>
#181000
0!
0N
1G
#181500
1!
1N
0G
1U
0R
0W
0V
0T
0S
1=
0>
1Z
1Y
1W
1V
0Z
0Y
#182000
0!
0N
1G
#182500
1!
1N
0G
1R
1T
1S
1>
0W
0V
1Z
1Y
#183000
0!
0N
1G
#183500
1!
1N
0G
1[
0X
0U
0R
0]
0\
0Z
0Y
1W
1V
0T
0S
1;
0<
0=
0>
1`
1]
1\
0`
#184000
0!
0N
1G
#184500
1!
1N
0G
1R
1T
1S
1>
#185000
0!
0N
1G
#185500
1!
1N
0G
1U
0R
0W
0V
0T
0S
1=
0>
1W
1V
#186000
0!
0N
1G
#186500
1!
1N
0G
1R
1T
1S
1>
0W
0V
#187000
0!
0N
1G
#187500
1!
1N
0G
1X
0U
0R
1Z
1Y
1W
1V
0T
0S
1<
0=
0>
0]
0\
0Z
0Y
1`
1]
1\
0`
#188000
0!
0N
1G
#188500
1!
1N
0G
1R
1T
1S
1>
#189000
0!
0N
1G
#189500
1!
1N
0G
1U
0R
1_
0W
0V
0T
0S
1=
0>
1Z
1Y
1W
1V
0]
0\
0Z
0Y
1`
1]
1\
0`
#190000
0!
0N
1G
#190500
1!
1N
0G
1R
1T
1S
1>
0W
0V
1Z
1Y
0]
0\
1`
#191000
0!
0N
1G
#191500
1!
1N
0G
1d
0a
0^
0[
0X
0U
0R
1f
1c
0_
0`
1]
1\
0Z
0Y
1W
1V
0T
0S
18
09
0:
0;
0<
0=
0>
0i
0f
1i
#192000
0!
0N
1G
#192500
1!
1N
0G
1R
1T
1S
1>
#193000
0!
0N
1G
#193500
1!
1N
0G
1U
0R
0W
0V
0T
0S
1=
0>
1W
1V
#194000
0!
0N
1G
#194500
1!
1N
0G
1R
1T
1S
1>
0W
0V
#195000
0!
0N
1G
